Weather Extremes in Singapore 2023
…
# Join on the "place" column
join_place <- weather_data %>%
  left_join(sg_coords, by = c("Location" = "place"))

# Combine the results
combined_weather_data <- bind_rows(
  join_city %>% filter(!is.na(x) & !is.na(y)),
  join_place %>% filter(!is.na(x) & !is.na(y))
)

combined_weather_data

# A tibble: 44,499 × 16
   Location   Month   Date       Daily Rainfall Total (…¹ Highest 30-min Rainf…²
   <chr>      <chr>   <date>                        <dbl> <chr>                 
 1 Ang Mo Kio January 2023-01-01                        0 0.0                   
 2 Ang Mo Kio January 2023-01-01                        0 0.0                   
 3 Ang Mo Kio January 2023-01-01                        0 0.0                   
 4 Ang Mo Kio January 2023-01-01                        0 0.0                   
 5 Ang Mo Kio January 2023-01-01                        0 0.0                   
 6 Ang Mo Kio January 2023-01-01                        0 0.0                   
 7 Ang Mo Kio January 2023-01-01                        0 0.0                   
 8 Ang Mo Kio January 2023-01-01                        0 0.0                   
 9 Ang Mo Kio January 2023-01-01                        0 0.0                   
10 Ang Mo Kio January 2023-01-01                        0 0.0                   
# ℹ 44,489 more rows
# ℹ abbreviated names: ¹​`Daily Rainfall Total (mm)`,
#   ²​`Highest 30-min Rainfall (mm)`
# ℹ 11 more variables: `Highest 60-min Rainfall (mm)` <chr>,
#   `Highest 120-min Rainfall (mm)` <chr>, `Mean Temperature (°C)` <chr>,
#   `Maximum Temperature (°C)` <chr>, `Minimum Temperature (°C)` <chr>,
#   `Mean Wind Speed (km/h)` <chr>, `Max Wind Speed (km/h)` <chr>, …
…
combined_extremes <- bind_rows(
  wettest %>% mutate(event = "Wettest", amount = total_rainfall),
  driest %>% mutate(event = "Driest", amount = total_rainfall),
  hottest %>% mutate(event = "Temperature (Hot)", amount = mean_temperature),
  coolest %>% mutate(event = "Temperature (Cool)", amount = mean_temperature),
  weather_wind_speed %>% mutate(event = "Wind Speed", amount = wind_speed)
)

combined_extremes

# A tibble: 50 × 9
   location   date        x     y total_rainfall event   amount mean_temperature
   <chr>      <chr>   <dbl> <dbl>          <dbl> <chr>    <dbl>            <dbl>
 1 Ang Mo Kio 2023-12  104.  1.38          1772  Wettest  1772                NA
 2 Ang Mo Kio 2023-03  104.  1.38          1607. Wettest  1607.               NA
 3 Sembawang  2023-12  104.  1.45          1479. Wettest  1479.               NA
 4 Sembawang  2023-03  104.  1.45          1357. Wettest  1357.               NA
 5 Sembawang  2023-11  104.  1.45          1254. Wettest  1254.               NA
 6 Tuas       2023-12  104.  1.33          1232. Wettest  1232.               NA
 7 Sembawang  2023-02  104.  1.45          1229. Wettest  1229.               NA
 8 Ang Mo Kio 2023-11  104.  1.38          1219. Wettest  1219.               NA
 9 Tuas       2023-07  104.  1.33          1202. Wettest  1202.               NA
10 Clementi   2023-02  104.  1.32          1163. Wettest  1163.               NA
# ℹ 40 more rows
# ℹ 1 more variable: wind_speed <dbl>
…
